[
  {
    "name": "Recherche universitaire",
    "duration": 2
  },
  {
    "name": "Études précliniques",
    "duration": 2.5
  },
  {
    "name": "Études cliniques de phase I",
    "duration": 0.5
  },
  {
    "name": "Études cliniques de phase II",
    "duration": 2
  },
  {
    "name": "Études cliniques de phase III",
    "duration": 1
  },
  {
    "name": "Fabrication",
    "duration": 6
  },
  {
    "name": "Homologation",
    "duration": 1
  }
]
